A dead person	daiman
A holiday	sande
A small quantity	liklik
A spear	spia
Adam	Adam
Africa	Aprika
Alternative form of -pela	-pla
Alternative form of Inglan	Englan
Alternative form of amamas	hamamas
Alternative form of ananit	aninit
Alternative form of barata	brata
Alternative form of blak	bilak
Alternative form of dispela	displa
Alternative form of eleven	ilewen
Alternative form of et	eit
Alternative form of etpela	eitpela
Alternative form of givim	gipim
Alternative form of gras	garas
Alternative form of hanwara	han wara
Alternative form of helpim	halivim
Alternative form of kilok	klok
Alternative form of kokonas	kokonat
Alternative form of liva	lewa
Alternative form of mekim	makim
Alternative form of moli	muli
Alternative form of moliwara	muliwara
Alternative form of moning	moningtaim
Alternative form of seven	sewen
Alternative form of sevenpela	sewenpela
Alternative form of skul	sikul
Alternative form of switmoli	switmuli
Alternative form of wokabaut	wokebaut
Alternative form of yu	iu
Alternative form of yupela	yupla
Alternative spelling of baklain	paklain
Alternative spelling of sarang	srang
Alternative spelling of tewel	dewel
An arrow	spia
An uncivilised person	bus kanaka
April	Epril
Assyria	Asiria
August	Ogas
Australia	Ostrelia
Bible	Baibel
Box	bokis
British	inglis
Canada	Keneda
Catholic	popi
Catholic Church	Katolik Sios
China	Saina
Christ	Krais
Christian	Kristen
Club	klap
Clubs	pinat
Commonwealth	Komonwel
Conduct	sindaun
Cush	Kus
December	Disemba
Determined	strong
Diamond	daimen
East	is
Eden	Iden
England	Inglan
English language	Inglis
Euphrates river	Yufretis
Europe	Yurop
February	Februeri
Fiji	Fiji
France	Frens
Fresh water	kolwara
Friday	Fraide
God	God
Great Britain	Inglan
Indicates a transitive verb	-im
Indonesia	lukluk
Instantaneously	wantu
January	Jenueri
Japanese	siapan
Jesus	Jisas
July	Julai
June	Jun
LORD	Bikpela
Lithuania	Lituwenia
Log	diwai
Lord	Bikpela
March	Mars
Marks future tense	bai
Marks passive voice construction	pinis
Marks perfect tense	pinis
Marks the future tense	baimbai
May	Mei
Monday	Mande
Mosquito	moskito
New Britain	Niu Briten
New Ireland	Nu Ailan
New Testament	Nupela Testamen
North	not
November	Novemba
October	Oktoba
Oyster	wusta
PR campaign	aweanes
Papua New Guinea	Papua Niugini
Peanut	pinat
Penis	kok
People	manmeri
Pope	pop
Port Moresby	Pot Mosbi
Protestant church leader	talatala
Rabaul	Rabaul
Rope	baklain
Saturday	Sarere
Secretary	sekreteri
September	Septemba
Slightly	liklik
Small	liklik
Soccer	kikbal
Spanish mackerel	tangir
Stingray	stingre
Strength	strong
Sunday	Sande
The best	namba wan
The number one	wan
The second person trial	yutripela
The taro plant	taro
Thursday	Fonde
Tigris river	Taigris
To address a letter	adresim
To allow	larim
To banish	banisim
To be pregnant	gat bel
To break	bagarapim
To break	brukim
To burn	paia
To call	singaut
To cover	karamapim
To cry	krai
To die	dai
To do	mekim
To fill	pulapim
To fly	flai
To forbid	tambuim
To garnish	abusim
To gather	bung
To inhabit	sindaun
To lie	giaman
To look after	lukautim
To lower	daunim
To make	mekim
To make holy	tambuim
To mourn	krai
To name	kolim
To oversee	bosim
To pass	abrusim
To plant	planim
To put	putim
To rest	malolo
To run	ran
To shorten	sotim
To sit	sindaun
To steal	stilim
To swarm over	karamapim
To wind through	raunim
To work hard	hatwok
To write	raitim
Tok Pisin	Tok Pisin
Tree	diwai
Tuberculosis	tibi
Tuesday	Tunde
Turtle	torasel
Village in Bali	lukluk
Virgin	virgo
Wednesday	Trinde
West	wes
Western material goods	kago
Wood	diwai
Wooden	diwai
a British person	inglis
a Catholic person	popi
a convict or prisoner	kalabus
a courthouse	haus kot
a great thing	namba wan
a hook	huk
a kind of fish	ula
a kind of seashell	kina
a lot	planti
a lot of	planti
a woman's sister	barata
a young	kulau
abdomen	bel
aborigine	kanaka
about	samting
acacia tree	akas
accident	bagarap
accident	birua
account	rekod
acquaintance	poro
acquaintance	poroman
address	adres
administration	administresen
administrator	administreta
advertisement	toksave
adviser	advaisa
advisory	advaiseri
afraid	pret
after	bihain
afternoon	apinun
afternoon	ivning
again	gen
agreement	agriman
agriculture	wok didiman
aircraft	balus
airport	ples balus
alarm	alam
albino	posai
alcohol	alkohol
all	olgeta
all	olgeta
all kinds of	kain kain
all kinds of	olkain
alliance	alaiens
alligator	pukpuk
allowance	alawens
alone	wanpis
alongside	abrus
already	yet
also	tu
altar	alta
altar boy	kundar
amateur	amata
ambassador	ambaseda
amen	tru
an earthquake	guria
ancestor	tambaran
ancestor	tumbuna
ancestor worship house	haus tambaran
anchor	anka
and	na
and so	olsem na
and thus	olsem na
angel	was
anger	paia
angry	belhat
animal	abus
animal   Synonym: abus	animal
ankle	ankol
anniversary	aniveseri
announcement	tok
announcer	anaunsa
another	nara
another	narapela
answer	ansa
ant	anis
anthem	antem
any elderly relative	bubu
any external parasitic insect	laus
any pidgin or creole	pisin
anything	samting
apart from	abrus
apartment	flet
apparently	ating
applicant	apliken
application	aplikesen
approximately	samting
archangel	akanggelo
archbishop	asbisop
areca	buai
arm	han
army	paitman
arrest	arest
arrow	bunara
as	olsem
as	olsem
as well	tu
aspirin	asprin
assembly	asembli
attempt	traim
attractive	naispela
aunt	anti
authority	atoriti
autonomy	otonomi
avocado	bata prut
axe	akis
axe	tamiok
baby	bebi
back	bek
backpack	raksak
backside	as
bad	nogut
badly	nogut
bag	bek
bag	bilum
bald	kela
ball	bol
bamboo	mambu
banana	banana
bank	haus moni
bank account	akaun
bankbook	pasbuk
barbed wire	kakang
bare	kela
barrel	barel
base	as
basket	basket
bastard	bastet
bathroom	smolhaus
battery	bateri
battery	betri
bay	pasis
be finished	pinis
beach	nambis
bean	bin
beans	bin
because	long wanem
become	tanim
bed	bet
bedbug	musmus
bee	ninik
beer	bia
before	bipo
beggar	rabisman
beginning	as
behavior	pasin
behaviour	sindaun
behind	bihain
belly	bel
below	daunbilo
belt	let
beneath	ananit
bent	krum
besides	abrus
best	namba wan
bet	bet
betel	daka
bicycle	baik
bicycle	wilwil
big	bikpela
big	traipela
bike	baik
bill	bil
biology	save long laip
bird	pisin
bird of paradise	kumul
biscuit	bisket
bishop	bisop
bite	kaikaim
bitter	pait
black	blak
black magic or sorcery	poisin
blackboard	blakbot
blame	asua
blanket	blanket
blessing	blesing
blind	ai i pas
blind person	aipas
blood	blut
blood vessel	mambu bilong blut
blouse	blaus
blowfly	blulang
bludger	pasindia
blue	blu
boar	welpik
board	plangk
body	bodi
bone	bun
book	buk
border	arere
border	boda
boss	bos
bottle	botol
bottom	as
boundary	arere
bowl	dis
bowl	plet
box	katen
box	kes
boxer	boksa
boy	manki
boyfriend	boipren
bra	banis bilong susu
brain	kru
branch	han
branch	han
brand	mak
brassiere	banis bilong susu
bread	bret
breadfruit	kapiak
break	bruk
breakers	si
breast	susu
bribe	kikbek
bride price	braitprais
bridge	bris
bright	lait
bright light	tulait
brine	solwara
bring	bringim
broken	bagarap
broken	bruk
broken down	bagarap
broom	brum
brother	barata
brown	braun
brush	bras
bubble gum	abababa
bucket	baket
buckle	sagol
budget	baset
build	wokim
building	haus
bullet	katres
bundle	mekpas
bus	bas
bush	bus
bush knife	busnaip
bush wind	kolwin
business	bisnis
busy	bisi
but	tasol
butter	bata
butterfly	bataplai
buttocks	as
button	baten
buy	baim
bypass or overtake something	abrusim
cabbage	kabis
cabin	kebin
cabinet	sarang
cable	waia
cage	banis
cake	kek
calendar	kalenda
call out	singaut
called	kol
calm	belisi
calmness	isipasin
camera	kamera
campaign	kempen
can	ken
cancer	kensa
candidate	kendidet
candle	kandel
candy	loli
canned fish	tinpis
canned meat	tinmit
canoe	kanu
canvas	sel
captain	kepten
car	kar
carambola	faivkona
cargo	kago
carnelian	kanilian
carpenter	kamnda
carpentry	wok kamda
carry	karim
carton	katen
carton	kes
carving	kaving
case	kes
cassowary	muruk
catch	hukim
catechist	katekis
cattle	bulmakau
cause	kos
cell	sel
cemetery	matmat
center	senta
centipede	sandavel
ceremony	seremoni
cervical	sevikel
cervix	seviks
chain	sen
chair	sia
champion	sempion
change	senisim
charm	poisin
check/cheque	sek
cheek	wasket
cheese	sis
chequebook	sekbuk
chest	bros
chic	smat
chicken	kakaruk
chief	bikman
chief	hetman
chief	kukurai
child	pikinini
chin	wasket
chisel	maisel
chock	pilo
chocolate	soklet
choir	kwaia
chops	sops
chopsticks	sopstik
church	sios
church building	haus lotu
churchman	man bilong lotu
cigar	brus
cigarette	rol
circuit	seket
city	biktaun
clan	lain
clan	pisin
clean	klinim
clear	rausim
clear off	rausim
clerk	kuskus
clever	smat
clinic	klinik
clock	kilok
close	pasim
closed	pas
clothing	klos
clothing	laplap
cloud	klaut
clown	paniman
coat	saket
cockatoo	koki
cockroach	kokoros
cocoa	kakao
coconut leaves	pangal
coconut palm	kokonas
coffee	kofi
coffee	kopi
coffee	kopi
coffee or tea strainer	strena
cohort	lain
cold	kol
colitis	pikbel
colleague	wanwok
colleague	wokpren
colonial	koloniel
colony	koloni
color	kala
comb	kom
come	kam
commandment	mandato
commerce	komes
commission	komisin
commissioner	komisina
committee	lain komiti
committee member	komiti
communication	komunikesen
community	komyuniti
companion	poroman
company	kampani
compassion	marimari
compassionate	marimari
complaint	komplen
computer	kompyuta
con man	bulsitman
concern	konsen
conch shell	taur
condisciple	wanskul
condom	kondom
conference	konfrens
confused	paul
congregation	kongrigesen
conman	grisman
container	kontena
contract	kontrak
contribution	kontribusen
convention	konvensen
conversation	toktok
cook	kuk
coral tree	palpal
cord	kod
cord	string
cork	tuptup
corn	kon
corner	kona
cost	kos
council	kaunsil
counselor	kaunsela
country	kantri
cover	tuptup
cow	bulmakau
cow	kau
coward	pretman
coworker	wanwok
crab	kuka
crayfish	kindam
create	wokim
creative	krietiv
credit card	kredit kad
creepy-crawly	binatang
creosote	kolta
crew member	boskru
criminal	raskol
crocodile	pukpuk
crooked	krum
crooked	krungut
crow	kotkot
crowbar	koroba
crucifix	krusefiks
cucumber	kukamba
culture	kalsa
cunning	kusai
cunning	wel
cunning person	welman
cunt	bokis
cunt	kan
cunt	kan
cup	kap
cupboard	sarang
currency	moni
custom	pasin
customs	kastans
cuttlefish	tauka
cyclone	bikwin
daily	olde
darkness	tudak
day	de
dead	dai
deaf	yaupas
deceptive	giaman
declaration	toksave
demon	tambaran
design	disain
desire	laik
desk	des
devil	tewel
dexterous	smat
dice	satu
dictionary	dikseneri
different	narakain
difficulty	hatwok
dirt	das
disciple	disaipel
disease	sik
dish	dis
dish	plet
do	wokim
doctor	dokta
document	pepa
dog	dok
dollar	moni
don't worry about it	maski
done with	pinis
donkey	donki
donor	dona
door	dua
doorknob	handel bilong dua
down	daun
down	daunbilo
dozen	dasan
dress	klos meri
drink	dring
drink	dringim
driver	draiva
dry	drai
duck	pato
dust	das
duty	duti
duty	wok
ear	yau
eardrum	palai
east	hap sankamap
eat	kaikai
economic	ikonomik
economy	ikonomi
edge	arere
edible fungus	talinga
education	edukesen
egg	kiau
eight	etpela
eighteen	etin
eighty	eti
elbow	skru
elbow	skru bilong han
election	vot
electrician	ilektrisen
electricity	pawa
eleven	eleven
emergency	imegensi
emigration	imigresen
employee	wokman
employees	woklain
employer	masta
employment	wok
empty	emti
enclosure	banis
enemy	birua
energy	eneji
engine	ensin
engine	masin
engineer	ansini
enough	inap
environment	envaironmen
envy	aigris
equal	ikwal
equal	wankain
equipment	ikwipmen
especially a fish hook	huk
eucalyptus	kumurere
evening	ivning
every	kain kain
every	olgeta
everybody	olgeta
everyone	olgeta
evidently	ating
excellent	namba wan
excrement	pekpek
excuse me	skius
eye	ai
eyebrow	gras bilong ai
eyeglasses	aiglas
face	pes
factory	faktori
fake	giaman
family	famili
family	lain
farewell speech	las toktok
fart	puinga
fashion	pasin
father	papa
fault	asua
feces	pekpek
feel	pilim
fellow	baga
fellow student	wanskul
female Coordinate term: man	meri
female domestic servant	hausmeri
female employee	wokmeri
female genitalia	bokis
female's breast	popo
fence	banis
feral	wel
fever	piva
fifteen	fiftin
fifty	fifti
fig	fik
fight	paitim
fighter	paitman
filled	pulap
finger	pinga
fingernail	kapa
finish something	pinisim
fire	paia
fireman	paiaman
firewood	paiawut
fish	pis
fishline	pislain
five	faiv
flag	plak
flame	lait bilong paia
flame	paia
flat	flet
flatterer	grisman
flattery	gris
flea	laus
flesh	mit
flight	balus
flirt	aigris
floor	plua
flour	plaua
flow of water	wara
flower	plaua
fly	lang
flying fox	blakbokis
fog	sno
food	kai
food	kaikai
fool	ful
foot	lek
foot	put
footprint	lek
forbidden	tambu
foreleg	han
forever	oltaim
forgiveness	pogiv
fork	pok
forklift	poklip
fortnightly salary	potnait
forty	foti
four	fopela
fourteen	fotin
freezer	prisa
fresh	nu
fried rice	prairais
friend	pren
frog	rokrok
fruit	prut
fruit bat	blakbokis
fungus	kru
funnel	fanol
funny	pani
fur	gras
fuse	pius
game	abus
garbage	pipia
garbage can	rabisbin
garbage man	rabisman
garden	gaden
garnish	abus
gasoline	bensin
gear	gia
gearbox	gia bokis
general	jenerel
generator	jenereta
genitalia	samting
gentleness	isipasin
geography	save long graun
get rid of	rausim
ghost	tambaran
ghost	tewel
girl	gel
girlfriend	gelpren
give	givim
glass	glas
glory	ona
go	go
goat	meme
gold	gol
good	gutpela
goodbye	gutbai
government	administresen
government	gavman
governor	gavana
grandparent	tumbuna
grass	gras
grasshopper	grasopa
gravy	sos
green	grin
green	grinpela
green coconut	kulau
green tea	grinpela ti
greens	sayor
grey	gre
ground	graun
group	lain
guava	yambo
guest	ges
guitar	gita
gull	kanai
gullet	mambu bilong nek
gun	masket
gunpowder	pauda
guy	baga
habitually	save
hair	gras
hair	gras bilong het
half	hap
hammer	hama
hand	han
hand drum	kundu
handkerchief	hankisip
handwriting	hanrait
happy	amamas
harbor	pasis
hard	hat
hard work	wokhat
hat	hat
hatchet	tamiok
hatred	pasin birua
have	gat
have mercy	marimari
head	het
headquarter	hetkota
health	helt
hear	harim
heart	pam
heaven	heven
heaven	skai
heavy	hevi
helicopter	helikopta
hello	hai
here	hia
heron	longpela nek
hidden	hait
high	antap
high school	haiskul
high tide	haiwara
high water	haiwara
highway	bikrot
hindleg	lek
hinge	hinsis
hit	kilim
hit	paitim
hoe	hapap
hole	ai
hole	hul
holiday	holide
holy	tambu
homeland	bikples
honey	hani
honor	ona
horn of an animal	kom
hornbill	kokomo
horse	hos
hospital	haus sik
hotel	hotel
hour	aua
house	haus
how many	hamas
how much	amas
how much	hamas
however	tasol
hundred	handet
hungry	hangre
hydrogen peroxide	proksait
idea	aidia
if	sapos
ill	sik
illegally distilled liquor	hombru
illness	sik
immigrant	waira
immigration	imigresen
implementation	implimentesen
in an instant	wantu
in the beginning	bipo tru
in-law	tambu
incorrect	krum
indigenous	indijines
inedible	wel
infection	infeksen
inferior	ananit
information	infomesen
information	toksave
ink	ing
insect	binatang
inside	insait
interest	profit
international	intenesenel
interpreter	tanimtok
interview	intaviu
investigation	wok painimaut
iodine	yot
iron	ain
iron	ainim
ironwood tree	kwila
island	ailan
it doesn't matter	maski
jacket	saket
jail	kalabus
jeep	jip
job	wok
joker	kusaiman
judge	jas
juice	jus
just	tasol
justice	jastis
kastom	kastom
kerosene	kerasin
ketchup	retsos
key	ki
kidney	kidni
kilometer	kilomita
kina	kina
kind	kain
king	king
kiss	kis
kitchen	kitsen
knee	skru
knee	skru bilong lek
kneel	brukim skru
knife	naip
knowledge	save
laborer	wokman
ladder	lata
lagoon	lagun
laity	leiti
lake	raunwara
lamp	lam
land	graun
land	kantri
language	tok
large red ants	karakum
large timber tree	taun
law	lo
lawyer	masta kot
leader	bikman
leader	hetman
leader	lida
leadership	lidasip
leaf	lip
leak	lik
leather	let
leave	go
leave	liv
leave	lusim
leech	rabasnek
left	lephan
left hand	kais
leg	lek
lemon	moli
lemonade	moliwara
leper	lepa
less	ananit
lesson	leson
liar	kusaiman
liberate	lusim
library	laibri
license	laisens
lid	ai
lid	tuptup
life	laip
life story	laipstori
lift	liptimapim
light	lait
lightning	paia
like	olsem
lime	kambang
limit	arere
line	lain
linguistics	save long tokples
lipid	gris
list	lista
listen	harim
little	liklik
liturgy	liteji
liver	liva
livestock	laipstok
lizard	palai
local	lokol
lock	lok
lone	wanpis
loner	welman
look	lukluk
look at	lukim
look out	lukaut
lord	bikpela
lose	lusim
louse	laus
love	lav
love magic	papait
lover	pren
low tide	draiwara
lower jaw	wasket
lowland pandanus	arang
lung	wetliva
machete	busnaip
machine	masin
magazine	megesin
main road	bikrot
main village	bikples
mainland	bikples
make	wokim
make a fist	brukim han
make fun of	rabisim
malaria	malaria
male	man
male domestic servant	hausboi
man	man
management	menesmen
manager	menesa
manner	pasin
many	planti
marble	mabol
marijuana	spak brus
maritman	meri
mark	mak
market	maket
master	bikpela
master	bos
matches	masis
mayor	meya
meaning	as
meaning	mining
meat	abus
meat	mit
mechanic	ansini
mechanic	mekanik
media	midia
medical	medikel
medicine	marasin
meet	bung
melon	melen
memory	memori
menu	menyu
merciful	marimari
mercy	marimari
message	mesej
message	tok
messed up	bagarap
meter	mita
middle	namel
middle of the day	biksan
midnight	biknait
mildness	isipasin
mile	mail
milk	milis
milk	susu
million	milien
ministry	ministri
minute	minit
miss	abrus
mission	misin
mission or government station	stesin
missionary	misinari
mist	sno
mistake	asua
mister	masta
mixed ancestry	hapkas
mixed race	hapkas
money	moni
monohull dugout canoe	por
month	mun
moon	mun
moral	morol
more	antap
more	moa
morgue	mog
morning	moning
mosquito	natnat
mosquito net	klambu
mother  Antonym: papa	mama
motivation	as
motor	ensin
motor	moto
moustache	maus gras
mouth	maus
movie	muvi
much	planti
muchly	planti
multicolored	kalakala
multicultural	maltikalsarel
multipronged fishing spear	supsup
murderer	kilman
mushroom	papai
mushroom	talinga
music	musik
musical	musikel
must	mas
mutton	sipsip
naked	as nating
nation	kantri
nation	nesen
national	nesenel
native	kanaka
navel	hap bel
navy	nevi
near	klostu
neck	nek
necktie	nektai
need	nidim
needle	nidel
needle	nil
net	umben
new	nu
news	nius
news	tok
newspaper	pepa
nice	naispela
night	nait
nine	nainpela
nineteen	naintin
ninety	nainti
no	nogat
no problem	nogat samting
no worries	maski
noise	nois
nomination	nominesen
noodle	nudal
noodles	nudal
noon	belo
northwest monsoon	taleo
nose	nus
not	no
not allowed	tambu
nothing	nating
notice	toksave
now	nau
nude	as nating
number	namba
nurse	nes
obligation	wok
ocean	biksi
ocean	solwara
octopus	urita
oesophagus	mambu bilong nek
offering	ofa
office	opis
officer	opisa
official	opisal
oil	wel
old	lapun
older brother	bikbrata
on top	antap
once	wantaim
one	wanpela
onion	anian
only	tasol
open	op
open	op
opening	ai
operator	opereta
or	o
or destroy	bagarapim
or quiver	guria
orange	switmoli
order	oda
ordinary	nating
ordinary people	grasrut
organization	oganaisesen
other	arapela
out	arasait
outhouse	smolhaus
outrigger	saman
oven	aven
overseer	bos
pail	baket
pain	pen
paint	pen
papaya	papaia
paper	pepa
parable	parabel
paradise	paradais
parasite	pasindia
parcel	mekpas
parents	papamama
parliament	palamen
part	hap
partner	patna
party	pati
passage	pasis
passbook	pasbuk
passenger	pasindia
passport	paspot
pastor	pasto
paternal cousin	barata
patron	petron
pauper	rabisman
pavement	rot kolta
pawpaw	popo
pay day	potnait
pay for	baim
paymaster	pemasta
pen	pen
pencil	pensil
peninsula	hapailan
people	pipel
pepper	pepa
perfume	sanda
permanent	pemenen
personal servant	makimasta
perspiration	tuhat
pest	binatang
petition	petisen
petrol	bensin
petroleum	petroliam
photograph	poto
phrase	toktok
pick	pik
pickaxe	pik
picnic	piknik
pie	pai
piece of wood	diwai
pig	pik
pigeon	balus
pillow	pilo
pilot	pailot
pinchers	pinsas
pineapple	ananas
pineapple	painap
pioneer	paionia
pipe	mambu
place	ples
place of mourning	haus karai
plank	plangk
planning	plening
plantation	plantesin
plaster	plasta
plastic	plastik
plastic bag	plastik
plate	pelet
plate	plet
platter	plet
player	pilaia
please	plis
pliers	plais
plough	plau
plug	plak
plumber	plama
pocket	poket
pocketknife	poketnaip
poison	poisin
police	polis
police station	polis stesin
policeman	polisman
policy	polisi
polish	polis
political	politikel
political party	pati
politician	politisen
pond	raunwara
poor man	rabisman
porridge	poris
port	pot
position	posisen
postcard	poskat
poster	posta
potato	poteto
potato or sweet potato	kaukau
pouch	pas
powder	paura
power	pawa
praise	ona
prayer	beten
pregnant	gat bel
president	presiden
price	prais
priest	man bilong lotu
priest	pater
primitive	manambus
prison	kalabus
prize	prais
problem	hevi
professor	profesa
profit	profit
program	program
project	projek
promise	promis
promotion	promosen
prophet	profet
province	provins
publicity	aweanes
pump	pam
pumpkin	pamkin
punishment	straf
puppy	papi
purple	hap ret
putty	kit
queen	kwin
question	kwesten
queue	lain
quick	kwik
radio	redio
rain	ren
rainbow	renbo
raise	kamapim
raw	amat
razor	resa
realize	luksave
reason	as
receipt	risit
record	rekod
recruiter	baimboi
red	ret
reef	rip
reflection	tewel
reform	rifom
refrigerator	bokis ais
region	rijen
regret	belhevi
regretful	belhevi
relations	rilesens
religion	relisen
religious procession	prosesio
remnant	sit
remove	rausim
report	ripot
reputation	gutnem
research	wok painimaut
residency	residensi
resolution	resolusen
resource	risos
respect	rispek
respond	bekim tok
rest	malolo
restaurant	haus kaikai
return	bekim
reverend	reveren
ribcage	banis
rice	rais
rich person	maniman
right	raithan
right hand	raithan
ringworm	grile
ripe	mau
rise	sanap
river	riva
river	wara
road	rot
roof	rup
room	rum
roundworm	raunwom
row	lain
rubber	gumi
rubbish	rabis
rucksack	raksak
rugby	ragbi
ruin	bagarapim
ruler	rula
rum	ram
rumour	tok
sacrifice	ofa
sacrifice	sakrifais
saddle	sadel
sago	saksak
sail	sel
sailboat	selbot
sailor	sela
salad	salat
saliva	spet
salt	sol
saltwater	solwara
same	sem
sand	wesan
sandals	sandal
sap	blut
sauce	sos
sausage	sosis
savage	manambus
savage	welman
saw	so
sawmill	somil
scent	smel
school	skul
school fees	skulfi
schoolchild	sumatin
science	saiens
scorpionfish	nilpis
screw	skru
scrotum	bol
sea	solwara
sealed	pas
secondary school	haiskul
secretary	seketeri
section	seksen
sector	sekta
security guard	wasman
see you later	lukim yu bihain
see you later alligator	lukim yu bihain pukpuk
seed	pikinini bilong kaikai
seemingly	ating
sell	salim
semen	melek
seminar	semina
send	salim
sentence	sentens
sentinel	wos
sergeant	saitan
service	sevis
settlement	setelmen
seven	sevenpela
seventeen	seventin
seventy	seventi
several	sampela
sew	samapim
sexual intercourse	puspus
shackle	sagol
shadow	tewel
shark	sak
shave	sev
sheep	sipsip
shell	sel
shellfish	sel
shilling	mak
ship	sip
shoe	su
shore	sua
shotgun	sot gan
shoulder	sol
shoulder	solda
shovel	savol
show	soim
shut	pas
shut	pasim
shut up	pasim maus
sick	sik
side	sait
side stream	hanwara
side-dish	abus
sign	mak
signboard	sainbot
sin	pekato
single	helpim
single	wanpis
sister	susa
sitting or sleeping mat	mat
six	sikispela
sixteen	sikistin
sixty	sikisti
size	sais
skin	skin
slave	rabisman
sleep	slip
slight	rabisim
slippery	wel
slum	setelmen
smart	smat
snail	demdem
snake	snek
sneaky	kusai
so be it	tru
so that	olsem na
soccer	soka
society	sosaiti
soft	malumalu
soft drink	loliwara
solder	soda
soldier	soldia
some	sampela
song	song
sorcerer	sanguma
sorcery	sanguma
sore	soa
sore	sua
sorry	sori
soul	tewel
sound	saun
soup	sup
sour	saua
source	as
soursop	sausap
south	saut
spanner	spana
spark plug	plak
spear	bunara
special	spesol
spectacles	aiglas
speech	tok
speed	spit
speedboat	spitbot
spell	poisin
spider	spaida
spirit	spirit
spirit	tambaran
spirit	tewel
spleen	splin
spoon	spun
sport	spot
sportsfield	fil
squid	tauka
squid	urita
stamp	stem
stand up	sanap
star	sta
star fruit	faivkona
starved	hangre
statement	toksave
steel	ain
steeple	taua
step stairs	lata
sterilizer	strerelaisa
stevedore	woksip
sticker	stika
still	yet
stingray	par
stocking	soken
stone	ston
stone axe	plangis
stop	holim
store	stua
storekeeper	stuakipa
story	stori
stove	stov
straight ahead	stret
strait	stret
strap	let
stream	wara
street	rot
strength	pawa
string	rop
string	string
stroll	raun
strong	strong
strong	strong
strong	strongpela
strong smelling disinfectant	pomet
student	sumatin
submission	sabmisen
substance	samting
sugar	suga
sugarcane	suga
sun	san
sunglasses	sanglas
sunrise	sankamap
supplier	saplaia
supply	saplai
support	sapot
supporter	sapota
surgery	sejeri
swamp	tais
sweat	tuhat
sweet	swit
swells	si
switch	swis
sword	bainat
symbol	mak
syringe	nidel
table	tebol
table of contents	lista
tale	stori
talent	talen
talk	tok
tall ginger	gorgor
tank	tang
tape recorder	teprikoda
tar	kolta
tarpaulin	sel
tasty	swit
tea	ti
teacher	tisa
team	tim
tear	aiwara
tease	rabisim
technician	teknisen
technology	teknoloji
telephone	telipon
television	tivi
tell	tokim
ten	tenpela
termite	waitanis
territory	teritori
tertiary education	bikskul
testicle	bol
testicle	kiau
thank you	tenkyu
thank you very much	tenkyu tru
that's all	em tasol
that's it	em tasol
the Lithuanian language	tok Lituwenia
the Lord	Bikpela
the Tok Pisin language	pisin
the United Kingdom	Inglan
the other side	arasait
the sky	skai
theater	tieta
then	orait
then	orait
there	hap
therefore	olsem na
they three	tripela
they two	tupela
thief	raskol
thing	samting
think	tingting
thirteen	tetin
thirty	teti
this	dispela
this place	hia
thorn	nil
thousand	tausen
three	tri
three	tripela
throat	nek
thunder	tanda
thus	olsem
ticket	tiket
tilapia	makau
till	wokim
time	taim
timetable	taimtebol
tinea	grile
tip	ai
to	olsem
to a small degree	liklik
to accept	akseptim
to add yeast	yisim
to anchor	anka
to appear	kamap
to arise	kamap
to arrest somebody	arestim
to be born	kamap
to be compassionate	marimari
to be nervous	guria
to be promiscuous	pilo
to be willing	laik
to beat	winim
to become	kamap
to bend	krungutim
to blow	winim
to boil	boilim
to book	bukim
to bugger up	bagarap
to celebrate	amamasim
to chain	senim
to challenge someone	duim
to cheat someone	giamanim
to comb something	konim
to come into being	kamap
to consider	skelim
to control	bosim
to control	kontrolim
to cost	kostim
to cover over	karamapim
to cover up	karamapim
to create	mekim
to crush	krungutim
to defecate	pekpek
to deify	tambuim
to do labor	hatwok
to drum	dramim
to eat	kai
to elect	votim
to exceed	winim
to face	bungim
to file	failim
to fish	huk
to flatter	grisim
to force	subim
to force someone	duim
to get	kisim
to grease	grisim
to hide	hait
to increase	apim
to keep out	banisim
to know	save
to labor	wok
to learn	save
to let	larim
to lock up	senim
to look out for	lukaut
to love	lavim
to lubricate	welim
to make a party	pati
to mark	mak
to meet	bungim
to mess up	bagarap
to observe	skelim
to oil	welim
to order	odaim
to pass	abrus
to place	putim
to play	pilai
to prepare	stretim
to raise	apim
to read	ridim
to report	ripot
to reserve	bukim
to ruin	spoilim
to sail	sel
to sanctify	tambuim
to see	lukim
to settle	sindaun
to shake	guria
to shave	sev
to sleep around	pilo
to smell something	smelim
to soap	sopim
to speak	tok
to spear something	spiaim
to spoil	spoilim
to squeeze	krungutim
to stone	stonim
to stop	stapim
to strain	strenim
to stroll	limlimbur
to struggle	hatwok
to sue	kotim
to supply	saplaim
to support	sapotim
to sweep	brum
to take	kisim
to taste	testim
to teach	skulim
to tear apart	brukim
to test	tesim
to trick someone maliciously	giamanim
to try	traim
to type something	taipim
to understand	save
to vote for	votim
to wake	kirapim
to walk	limlimbur
to walk	wokabaut
to waste	westim
to wear	werim
to whip	wipim
to wind	winim
to work	wok
tobacco	brus
today	tude
toenail	kapa
together with	wantaim
toilet	smolhaus
toilet	toilet
tomahawk	tamiok
tomato	tomato
tomorrow	tumora
tongue	tang
too	tu
too much	tumas
tooth	tis
tooth	tit
torch	sutlam
tortoise	torosel
tourism	turisim
tourist	turis
towel	taul
tower	taua
town	ples
town	taun
trachea	mambu bilong nek
trachea	paip
traditional rattles	salamon
trash	pipia
trash	rabis
tremble	guria
tribe	lain
tribesman	kanaka
tributary of a river	hanwara
tricky	wel
truck	trak
true	tru
truly	tru
tuna	atun
turkey	teki
turn	tanim
turtle	torosel
turtle shell	torosel
twelve	twelv
twenty	twenti
twins	sangsangana
twisted	krungut
two	tu
two	tupela
type	kain
type of yam	mami
typewriter	taipraita
typhoid	taifoid
typist	taipis
tyre	taia
ulcer	soa
umbrella	ambrela
uncle	ankol
under	ananit
underneath	ananit
underpants	andapens
underside	bel
underwear	andapens
uniform	yunifom
university	yunivesiti
until	inap
unyielding	strong
up	antap
urine	pispis
us two	mitupela
use	yusim
vacation	liv
vagina	hul
vagrant	pasindia
varnish	vanis
vegetable	kumu
vegetables	sayor
vegetation	gras
verily	tru
very	tru
very much	tru
very much	tumas
veterinary hospital	haus dok sik
village	ples
village	viles
vine	rop
vinegar	viniga
vocation	vokeisen
voice	vois
volume	volim
volunteer	voluntia
vomit	traut
vote	vot
wait	wetim
wall	wol
wallaby	magani
wallet	hanpaus
wander	raun
wanderer	dripman
wanderer	welman
want	laik
war	woa
ward	wot
warder	woda
warship	manua
wasp	ninik
waste	rabis
water	wara
watercress	kango
waves	si
we, us	mipela
we, us	yumipela
weak	hangre
weak	wik
web	umben
week	wik
weekend	wiken
weight	hevi
welcome	welkam
well	gut
western	westen
wet nurse	susumama
wharf	wap
wharfie	woksip
what	wanem
wheat	wit
wheel	wil
wheelbarrow	wilbaro
when	wataim
where	we
whetstone	wetston
whip	wip
white	wait
white ant	waitanis
white person	dimdim
white-collar worker	susokman
whitebait	ainanga
why	watpo
wick	wik
wife  Coordinate terms: man	meri
winch	winis
wind	win
wind instrument	mambu
wind storm	bikwin
window	windo
windpipe	mambu bilong nek
wine	wain
wing	han
wing	wing
winged bean	asbin
wink	brukim ai
wire	waia
wish	laik
witch	puripurimeri
witchcraft	puripuri
wolf	weldok
woman  Coordinate term: man	meri
woodworking	wok kamda
wool	wul
word	wod
work	wok
workman	wokman
workmate	wokpren
workshop	woksap
world	wol
worthless person	pekpekman
wound	sua
wreck	bagarap
wrecked	bagarap
wrench	spana
wristwatch	hanwas
yam	yam
year	yia
yeast	yis
yellow	yelo
yellow	yelopela
yes	yes
yes	yes
yesterday	asde
yet	yet
you	yu
you	yupela
you two	yutupela
you're welcome	nogat samting
young	yangpela
youth	manki
youth	yut
